%YAML 1.1
%TAG !u! tag:unity3d.com,2011:
--- !u!1045 &1
EditorBuildSettings:
  m_ObjectHideFlags: 0
  serializedVersion: 2
  m_Scenes:
  - enabled: 1
    path: Assets/_Game_Assets/Scenes/MainMenu.unity
    guid: d98f2fa666bd53e4f87ad8bcebb77181
  - enabled: 1
    path: Assets/_Game_Assets/Scenes/Town.unity
    guid: a6cc32e6df1b2054ea002cfa5a0822f7
  - enabled: 1
    path: Assets/_Game_Assets/Scenes/Combat.unity
    guid: bb4baea4c433abe49998879db731ab12
  - enabled: 1
    path: Assets/_Game_Assets/Scenes/Gameplay.unity
    guid: b0065b70838f46045986904fcacf5594
  - enabled: 1
    path: Assets/_Game_Assets/Scenes/GameOver.unity
    guid: 70dcefe9ad9dd4c499098a7378282480
  - enabled: 1
    path: Assets/_Game_Assets/Scenes/Winning.unity
    guid: a3be7659961a3b74abbe0c3d807ce121
  - enabled: 1
    path: Assets/_Game_Assets/Scenes/Menu.unity
    guid: 21441eda1e9aba24db69d68f6137b0ee
  - enabled: 1
    path: Assets/_Game_Assets/Scenes/Upgrade.unity
    guid: 49d36c9209232f648a3396537d558582
  - enabled: 1
    path: Assets/UI_KongAiGame_Asset/UI_Asset/Scenes/Scene_LongTake_Intro.unity
    guid: b3ba344794471ab48a53de53d1c0755e
  - enabled: 1
    path: Assets/UI_KongAiGame_Asset/SlimUI/Modern Menu 1/Scenes/Demos/Demo1.unity
    guid: 829a86ba161cdd840842063447f41aab
  m_configObjects: {}
