%YAML 1.1
%TAG !u! tag:unity3d.com,2011:
--- !u!78 &1
TagManager:
  serializedVersion: 2
  tags:
  - Item
  - Enemy
  layers:
  - Default
  - TransparentFX
  - Ignore Raycast
  - Player
  - Water
  - UI
  - Item
  - Obstacle
  - Menu
  - 
  - 
  - 
  - 
  - 
  - 
  - 
  - 
  - 
  - 
  - 
  - 
  - 
  - 
  - 
  - 
  - 
  - 
  - 
  - 
  - 
  - 
  - 
  m_SortingLayers:
  - name: BackGround
    uniqueID: 2100354495
    locked: 0
  - name: Default
    uniqueID: 0
    locked: 0
  - name: Object
    uniqueID: 2980721373
    locked: 0
  - name: Enemy
    uniqueID: 2270320129
    locked: 0
  - name: player
    uniqueID: 1227987953
    locked: 0
  - name: foreground
    uniqueID: 4284019479
    locked: 0
  - name: UI
    uniqueID: 2253351991
    locked: 0
