%YAML 1.1
%TAG !u! tag:unity3d.com,2011:
--- !u!1 &4974370749168899083
GameObject:
  m_ObjectHideFlags: 0
  m_CorrespondingSourceObject: {fileID: 0}
  m_PrefabInstance: {fileID: 0}
  m_PrefabAsset: {fileID: 0}
  serializedVersion: 6
  m_Component:
  - component: {fileID: 1937976064369885787}
  - component: {fileID: 5321654301539189294}
  m_Layer: 0
  m_Name: SoundManagaer
  m_TagString: Untagged
  m_Icon: {fileID: 0}
  m_NavMeshLayer: 0
  m_StaticEditorFlags: 0
  m_IsActive: 1
--- !u!4 &1937976064369885787
Transform:
  m_ObjectHideFlags: 0
  m_CorrespondingSourceObject: {fileID: 0}
  m_PrefabInstance: {fileID: 0}
  m_PrefabAsset: {fileID: 0}
  m_GameObject: {fileID: 4974370749168899083}
  m_LocalRotation: {x: 0, y: 0, z: 0, w: 1}
  m_LocalPosition: {x: -24.782578, y: -4.5598807, z: 8.443337}
  m_LocalScale: {x: 1, y: 1, z: 1}
  m_ConstrainProportionsScale: 0
  m_Children: []
  m_Father: {fileID: 0}
  m_RootOrder: 20
  m_LocalEulerAnglesHint: {x: 0, y: 0, z: 0}
--- !u!114 &5321654301539189294
MonoBehaviour:
  m_ObjectHideFlags: 0
  m_CorrespondingSourceObject: {fileID: 0}
  m_PrefabInstance: {fileID: 0}
  m_PrefabAsset: {fileID: 0}
  m_GameObject: {fileID: 4974370749168899083}
  m_Enabled: 1
  m_EditorHideFlags: 0
  m_Script: {fileID: 11500000, guid: fee9f5d29bce6424e84b7b7921ad7ab4, type: 3}
  m_Name: 
  m_EditorClassIdentifier: 
  m_SoundSettings: {fileID: 11400000, guid: f91025016cf3eeb4aae369a7b6da4bb2, type: 2}
  m_SliderMasterVolume: {fileID: 0}
  m_SliderMusicVolume: {fileID: 0}
  m_SliderMasterSFXVolume: {fileID: 0}
  m_SliderSFXVolume: {fileID: 0}
  m_SliderUIVolume: {fileID: 0}
