%YAML 1.1
%TAG !u! tag:unity3d.com,2011:
--- !u!74 &7400000
AnimationClip:
  m_ObjectHideFlags: 0
  m_CorrespondingSourceObject: {fileID: 0}
  m_PrefabInstance: {fileID: 0}
  m_PrefabAsset: {fileID: 0}
  m_Name: Walking_Simulator
  serializedVersion: 7
  m_Legacy: 0
  m_Compressed: 0
  m_UseHighQualityCurve: 1
  m_RotationCurves: []
  m_CompressedRotationCurves: []
  m_EulerCurves: []
  m_PositionCurves: []
  m_ScaleCurves: []
  m_FloatCurves: []
  m_PPtrCurves:
  - serializedVersion: 2
    curve:
    - time: 0
      value: {fileID: -2098427762, guid: 7e9dbc0950e5f374da68996425db26f4, type: 3}
    - time: 1
      value: {fileID: -2024129706, guid: 7e9dbc0950e5f374da68996425db26f4, type: 3}
    - time: 2
      value: {fileID: 1349347954, guid: 7e9dbc0950e5f374da68996425db26f4, type: 3}
    - time: 3
      value: {fileID: 1412259174, guid: 7e9dbc0950e5f374da68996425db26f4, type: 3}
    - time: 4
      value: {fileID: -1882649967, guid: 7e9dbc0950e5f374da68996425db26f4, type: 3}
    - time: 5
      value: {fileID: -1743760059, guid: 7e9dbc0950e5f374da68996425db26f4, type: 3}
    - time: 6
      value: {fileID: 1849443766, guid: 7e9dbc0950e5f374da68996425db26f4, type: 3}
    - time: 7
      value: {fileID: 279956075, guid: 7e9dbc0950e5f374da68996425db26f4, type: 3}
    - time: 8
      value: {fileID: 1990780871, guid: 7e9dbc0950e5f374da68996425db26f4, type: 3}
    - time: 9
      value: {fileID: -906178760, guid: 7e9dbc0950e5f374da68996425db26f4, type: 3}
    - time: 10
      value: {fileID: 718778347, guid: 7e9dbc0950e5f374da68996425db26f4, type: 3}
    - time: 11
      value: {fileID: -774443474, guid: 7e9dbc0950e5f374da68996425db26f4, type: 3}
    attribute: m_Sprite
    path: 
    classID: 114
    script: {fileID: 11500000, guid: fe87c0e1cc204ed48ad3b37840f39efc, type: 3}
    flags: 2
  m_SampleRate: 60
  m_WrapMode: 0
  m_Bounds:
    m_Center: {x: 0, y: 0, z: 0}
    m_Extent: {x: 0, y: 0, z: 0}
  m_ClipBindingConstant:
    genericBindings:
    - serializedVersion: 2
      path: 0
      attribute: 2015549526
      script: {fileID: 11500000, guid: fe87c0e1cc204ed48ad3b37840f39efc, type: 3}
      typeID: 114
      customType: 0
      isPPtrCurve: 1
      isIntCurve: 0
      isSerializeReferenceCurve: 0
    pptrCurveMapping:
    - {fileID: -2098427762, guid: 7e9dbc0950e5f374da68996425db26f4, type: 3}
    - {fileID: -2024129706, guid: 7e9dbc0950e5f374da68996425db26f4, type: 3}
    - {fileID: 1349347954, guid: 7e9dbc0950e5f374da68996425db26f4, type: 3}
    - {fileID: 1412259174, guid: 7e9dbc0950e5f374da68996425db26f4, type: 3}
    - {fileID: -1882649967, guid: 7e9dbc0950e5f374da68996425db26f4, type: 3}
    - {fileID: -1743760059, guid: 7e9dbc0950e5f374da68996425db26f4, type: 3}
    - {fileID: 1849443766, guid: 7e9dbc0950e5f374da68996425db26f4, type: 3}
    - {fileID: 279956075, guid: 7e9dbc0950e5f374da68996425db26f4, type: 3}
    - {fileID: 1990780871, guid: 7e9dbc0950e5f374da68996425db26f4, type: 3}
    - {fileID: -906178760, guid: 7e9dbc0950e5f374da68996425db26f4, type: 3}
    - {fileID: 718778347, guid: 7e9dbc0950e5f374da68996425db26f4, type: 3}
    - {fileID: -774443474, guid: 7e9dbc0950e5f374da68996425db26f4, type: 3}
  m_AnimationClipSettings:
    serializedVersion: 2
    m_AdditiveReferencePoseClip: {fileID: 0}
    m_AdditiveReferencePoseTime: 0
    m_StartTime: 0
    m_StopTime: 11.016666
    m_OrientationOffsetY: 0
    m_Level: 0
    m_CycleOffset: 0
    m_HasAdditiveReferencePose: 0
    m_LoopTime: 1
    m_LoopBlend: 0
    m_LoopBlendOrientation: 0
    m_LoopBlendPositionY: 0
    m_LoopBlendPositionXZ: 0
    m_KeepOriginalOrientation: 0
    m_KeepOriginalPositionY: 1
    m_KeepOriginalPositionXZ: 0
    m_HeightFromFeet: 0
    m_Mirror: 0
  m_EditorCurves: []
  m_EulerEditorCurves: []
  m_HasGenericRootTransform: 0
  m_HasMotionFloatCurves: 0
  m_Events:
  - time: 2
    functionName: 
    data: 
    objectReferenceParameter: {fileID: 0}
    floatParameter: 0
    intParameter: 0
    messageOptions: 0
